summary
…
topdockets %>% group_by(docketId, organization) %>% summarise(n = sum(numberOfCommentsReceived)) %>% arrange(-n)

## # A tibble: 88,243 x 3
## # Groups:   docketId [10]
##    docketId             organization                          n
##    <chr>                <chr>                             <int>
##  1 EPA-HQ-OAR-2013-0495 <NA>                            1004412
##  2 FWS-HQ-IA-2013-0091  World Wildlife Fund              999999
##  3 CFPB-2016-0025       <NA>                             918958
##  4 FWS-HQ-ES-2013-0073  <NA>                             870844
##  5 EPA-HQ-OAR-2011-0660 <NA>                             831252
##  6 EPA-HQ-OAR-2013-0602 League of Conservation Voters    686912
##  7 EPA-HQ-OAR-2013-0602 <NA>                             625423
##  8 EPA-HQ-OAR-2011-0660 Sierra Club                      533659
##  9 EPA-HQ-OAR-2013-0602 America's Electric Cooperatives  492370
## 10 EPA-HQ-OAR-2013-0602 Organizing For Action            488609
## # ... with 88,233 more rows
