Public comments on proposed rules
…
topdockets %>% group_by(docketId, organization) %>% summarise(n = sum(numberOfCommentsReceived)) %>% arrange(-n)

## # A tibble: 344 x 3
## # Groups:   docketId [10]
##    docketId             organization                          n
##    <chr>                <chr>                             <int>
##  1 DOI-2017-0002        <NA>                            2036965
##  2 EPA-HQ-OAR-2013-0495 <NA>                            1002117
##  3 EPA-HQ-OAR-2011-0660 <NA>                             828623
##  4 FWS-HQ-ES-2013-0073  <NA>                             821739
##  5 EPA-HQ-OAR-2013-0602 League of Conservation Voters    686778
##  6 BOEM-2017-0074       <NA>                             660839
##  7 EPA-HQ-OAR-2013-0602 <NA>                             620139
##  8 EPA-HQ-OAR-2011-0660 Sierra Club                      533528
##  9 EPA-HQ-OAR-2013-0602 America's Electric Cooperatives  492370
## 10 EPA-HQ-OAR-2013-0602 Organizing For Action            488609
## #  with 334 more rows
