The Payday Loan Rule
…
# get txt file names from a directory, here called "comment_text"
comments <- tibble( path = list.files( here::here("comment_text", agency, docket), full.names = T) ) 

# apply comment_tengrams function
d <- comment_tengrams(nprm, 
                      comments %>% top_n(50) # just a few comments for now 
                      )

Output

d

## # A tibble: 50 x 3
##    document_id            text                 reuse            
##    <chr>                  <list>               <list>           
##  1 CFPB-2016-0025-90947-1 <tibble [3,172  2]> <tibble [50  2]>
##  2 CFPB-2016-0025-90967-1 <tibble [2,967  2]> <tibble [50  2]>
##  3 CFPB-2016-0025-90980-1 <tibble [2,680  2]> <tibble [50  2]>
##  4 CFPB-2016-0025-90995-1 <tibble [974  2]>   <tibble [50  2]>
##  5 CFPB-2016-0025-90999-1 <tibble [1,295  2]> <tibble [50  2]>
##  6 CFPB-2016-0025-91049-1 <tibble [4,418  2]> <tibble [50  2]>
##  7 CFPB-2016-0025-91053-1 <tibble [2,678  2]> <tibble [50  2]>
##  8 CFPB-2016-0025-91058-1 <tibble [4,245  2]> <tibble [50  2]>
##  9 CFPB-2016-0025-91130-1 <tibble [9,999  2]> <tibble [50  2]>
## 10 CFPB-2016-0025-91131-1 <tibble [9,999  2]> <tibble [50  2]>
## #  with 40 more rows
…
nprm_phrase is whether the that word is part of a ten-word phrase that is in the NPRM

reuse contains a data frame for each other comment:

document_id2

reuse indicates whether each word in the document,document_id, is part of a ten-word phrase that appears in the second document, document_id2.

1. Comparing comment text to the NPRM

d$text[1:2]

## [[1]]
## # A tibble: 3,172 x 2
##    nprm_phrase word     
##    <lgl>       <chr>    
##  1 FALSE       short    
##  2 FALSE       h        
##  3 FALSE       ome      
##  4 FALSE       mortgage 
##  5 FALSE       lenders  
##  6 FALSE       have     
##  7 FALSE       long     
##  8 FALSE       enjoyed  
##  9 FALSE       favorable
## 10 FALSE       treat    
## #  with 3,162 more rows
## 
## [[2]]
## # A tibble: 2,967 x 2
##    nprm_phrase word       
##    <lgl>       <chr>      
##  1 FALSE       an         
##  2 FALSE       analysis   
##  3 FALSE       of         
##  4 FALSE       pawn       
##  5 FALSE       shops      
##  6 FALSE       legislation
##  7 FALSE       series     
##  8 FALSE       overview   
##  9 FALSE       of         
## 10 FALSE       article    
## #  with 2,957 more rows
…
Pew Charitable Trusts. Payday Lending in America: Who Borrows, Where They Borrow, and Why. Washington, DC, 2012. 6.

Levy, Rob, and Joshua Sledge. A Complex Portrait: An Examination of Small-Dollar Credit Consumers. Chicago: Center for Financial Services Innovation, 2012. 11.

The ability to quickly recall shared text is a key advantage of storing the output in this format.

2. Text reuse across comments

Just as nprm_phrase indicates whether each word in a comment was part of a tengram that appeared in the NPRM, there is a column reuse indicating whether each word was part of a tengram that also appeared in each other comment in the data.

d$reuse[1:2]

## [[1]]
## # A tibble: 50 x 2
##    document_id2           reuse        
##    <chr>                  <list>       
##  1 CFPB-2016-0025-90947-1 <lgl [3,172]>
##  2 CFPB-2016-0025-90967-1 <lgl [3,172]>
##  3 CFPB-2016-0025-90980-1 <lgl [3,172]>
##  4 CFPB-2016-0025-90995-1 <lgl [3,172]>
##  5 CFPB-2016-0025-90999-1 <lgl [3,172]>
##  6 CFPB-2016-0025-91049-1 <lgl [3,172]>
##  7 CFPB-2016-0025-91053-1 <lgl [3,172]>
##  8 CFPB-2016-0025-91058-1 <lgl [3,172]>
##  9 CFPB-2016-0025-91130-1 <lgl [3,172]>
## 10 CFPB-2016-0025-91131-1 <lgl [3,172]>
## #  with 40 more rows
## 
## [[2]]
## # A tibble: 50 x 2
##    document_id2           reuse        
##    <chr>                  <list>       
##  1 CFPB-2016-0025-90947-1 <lgl [2,967]>
##  2 CFPB-2016-0025-90967-1 <lgl [2,967]>
##  3 CFPB-2016-0025-90980-1 <lgl [2,967]>
##  4 CFPB-2016-0025-90995-1 <lgl [2,967]>
##  5 CFPB-2016-0025-90999-1 <lgl [2,967]>
##  6 CFPB-2016-0025-91049-1 <lgl [2,967]>
##  7 CFPB-2016-0025-91053-1 <lgl [2,967]>
##  8 CFPB-2016-0025-91058-1 <lgl [2,967]>
##  9 CFPB-2016-0025-91130-1 <lgl [2,967]>
## 10 CFPB-2016-0025-91131-1 <lgl [2,967]>
## #  with 40 more rows
…
