summary
…
topdockets %>% group_by(docketId, organization) %>% summarise(n = sum(numberOfCommentsReceived)) %>% arrange(-n)

## # A tibble: 76,714 x 3
## # Groups:   docketId [10]
##    docketId             organization                             n
##    <chr>                <chr>                                <int>
##  1 DOI-2017-0002        <NA>                               2839046
##  2 EPA-HQ-OAR-2013-0495 <NA>                               1004412
##  3 CFPB-2016-0025       <NA>                                918958
##  4 FWS-HQ-ES-2013-0073  <NA>                                870844
##  5 EPA-HQ-OAR-2011-0660 <NA>                                831252
##  6 BOEM-2017-0074       <NA>                                693460
##  7 EPA-HQ-OAR-2013-0602 League of Conservation Voters       686912
##  8 EPA-HQ-OAR-2013-0602 <NA>                                625423
##  9 EPA-HQ-OAR-2011-0660 Sierra Club                         533659
## 10 EPA-HQ-OAR-2013-0602 "America's Electric Cooperatives "  492370
## #  with 76,704 more rows
